Mid-term project instructions
…
r2_mods

# A tibble: 30 × 5
# Groups:   resp_var, exp_var [30]
   resp_var exp_var      data               lm     r2       
   <chr>    <chr>        <list>             <list> <list>   
 1 lfw_g    perimeter    <tibble [324 × 2]> <lm>   <dbl [1]>
 2 lfw_g    axis_major   <tibble [324 × 2]> <lm>   <dbl [1]>
 3 lfw_g    axis_minor   <tibble [324 × 2]> <lm>   <dbl [1]>
 4 lfw_g    eccentricity <tibble [324 × 2]> <lm>   <dbl [1]>
 5 lfw_g    convex_hull  <tibble [324 × 2]> <lm>   <dbl [1]>
 6 lfw_g    compactness  <tibble [324 × 2]> <lm>   <dbl [1]>
 7 lfw_g    extent       <tibble [324 × 2]> <lm>   <dbl [1]>
 8 lfw_g    diameter     <tibble [324 × 2]> <lm>   <dbl [1]>
 9 lfw_g    area_cm2     <tibble [324 × 2]> <lm>   <dbl [1]>
10 lfw_g    inc_light    <tibble [324 × 2]> <lm>   <dbl [1]>
# ℹ 20 more rows
…
